{
  "Version": "2012-10-17",
  "Statement": [{
    "Action": [
      "s3:ListBucket",
      "s3:GetBucketLocation"
    ],
    "Resource": "arn:aws:s3:::project-${environment}-ecs",
    "Effect": "Allow"
  }, {
    "Action": [
      "s3:GetObject"
    ],
    "Resource": [
      "arn:aws:s3:::project-${environment}-ecs/${environment}/whatever/*"
    ],
    "Effect": "Allow"
  }, {
    "Action": [
      "s3:PutObject",
      "s3:GetObject",
      "s3:DeleteObject"
    ],
    "Resource": [
      "arn:aws:s3:::project-${environment}-ecs/${environment}/collection/*"
    ],
    "Effect": "Allow"
  }]
}
